Differential Gene Expression
…
Model Testing

Can easily collect all genes into a manageable object

res_M <- fit %>% 
  glmQLFTest(coef = "treatmentM") %>%
  topTags(n = Inf) %>% 
  as.data.frame() %>% 
  as_tibble()
res_M

# A tibble: 13,896 × 13
   seqnames     start      end  width strand gene_id gene_type gene_name logFC logCPM     F   PValue
   <fct>        <int>    <int>  <int> <fct>  <chr>   <chr>     <chr>     <dbl>  <dbl> <dbl>    <dbl>
 1 chr6      83552880   8.37e7 156812 -      ENSG00… protein_… SNAP91    -4.30   5.79 1245. 4.46e-13
 2 chr8      33591330   3.36e7   8694 -      ENSG00… protein_… DUSP26    -6.41   1.00  320. 8.86e-11
 3 chr6      84687351   8.48e7  77248 -      ENSG00… protein_… TBX18      4.61   1.39  463. 1.33e-10
 4 chr19      6677704   6.73e6  52859 -      ENSG00… protein_… C3         7.40   1.99  223. 7.85e-10
 5 chr3      99638475   9.98e7 160752 +      ENSG00… protein_… COL8A1     1.90   4.26  222. 7.22e- 9
 6 chr6     168441151   1.69e8 232295 +      ENSG00… protein_… SMOC2      2.98   3.00  214. 8.72e- 9
 7 chr11    116835751   1.17e8   2200 -      ENSG00… protein_… APOA1     -1.91   6.89  202. 1.22e- 8
 8 chr20     36541497   3.66e7   9951 +      ENSG00… protein_… MYL9       2.21   9.09  193. 1.55e- 8
 9 chr10     76869601   7.76e7 768769 -      ENSG00… protein_… KCNMA1     2.91   4.04  191. 1.65e- 8
10 chr9      83938311   8.40e7  18676 -      ENSG00… protein_… C9orf64    5.73   1.84  176. 2.01e- 8
# ℹ 13,886 more rows
# ℹ 1 more variable: FDR <dbl>
…
