Finding the Underlying Biology
…
Parses MSigDb gene sets as a tibble

Not really built on existing Bioconductor object classes

Best annotations are for human/mouse

msigdbr

library(tidyverse)
library(magrittr)
theme_set(theme_bw())
library(msigdbr)
msigdbr_collections()

# A tibble: 23 × 3
   gs_cat gs_subcat         num_genesets
   <chr>  <chr>                    <int>
 1 C1     ""                         299
 2 C2     "CGP"                     3384
 3 C2     "CP"                        29
 4 C2     "CP:BIOCARTA"              292
 5 C2     "CP:KEGG"                  186
 6 C2     "CP:PID"                   196
 7 C2     "CP:REACTOME"             1615
 8 C2     "CP:WIKIPATHWAYS"          664
 9 C3     "MIR:MIRDB"               2377
10 C3     "MIR:MIR_Legacy"           221
# ℹ 13 more rows
…
Comparing To Our Data

res_treatM <- read_rds("data/res_treatM.rds") %>% 
  mutate(ensembl_gene = str_extract(gene_id, "ENSG[0-9]+")) # Remove version numbers
kegg_tbl %>% 
  summarise(
    gs_size = dplyr::n(),
    detected = sum(ensembl_gene %in% res_treatM$ensembl_gene),
    .by = gs_name
  ) %>% 
  mutate(prop_detected = detected / gs_size) %>% 
  arrange(prop_detected)

# A tibble: 186 × 4
   gs_name                                        gs_size detected prop_detected
   <chr>                                            <int>    <int>         <dbl>
 1 KEGG_ASTHMA                                        113        2        0.0177
 2 KEGG_GRAFT_VERSUS_HOST_DISEASE                     314        7        0.0223
 3 KEGG_OLFACTORY_TRANSDUCTION                        523       19        0.0363
 4 KEGG_AUTOIMMUNE_THYROID_DISEASE                    166        7        0.0422
 5 KEGG_ALLOGRAFT_REJECTION                           157        7        0.0446
 6 KEGG_ANTIGEN_PROCESSING_AND_PRESENTATION           535       30        0.0561
 7 KEGG_TYPE_I_DIABETES_MELLITUS                      170       12        0.0706
 8 KEGG_INTESTINAL_IMMUNE_NETWORK_FOR_IGA_PRODUC…     125        9        0.072 
 9 KEGG_TASTE_TRANSDUCTION                             89       10        0.112 
10 KEGG_NATURAL_KILLER_CELL_MEDIATED_CYTOTOXICITY     465       62        0.133 
# ℹ 176 more rows
…
To really tidy the results

goseq_M <- goseq(pwf, gene2cat = kegg_by_gene) %>% 
  as_tibble() %>% 
  mutate(
    FDR = p.adjust(over_represented_pvalue, "fdr"),
    pDE = numDEInCat / numInCat
  ) %>% 
  dplyr::select(
    category, nDE = numDEInCat, pDE, size = numInCat, pvalue = over_represented_pvalue, FDR
  ) 
goseq_M

# A tibble: 181 × 6
   category                                      nDE   pDE  size  pvalue     FDR
   <chr>                                       <int> <dbl> <int>   <dbl>   <dbl>
 1 KEGG_ECM_RECEPTOR_INTERACTION                  13 0.2      65 2.10e-5 0.00380
 2 KEGG_NEUROACTIVE_LIGAND_RECEPTOR_INTERACTI…    13 0.169    77 1.16e-4 0.0105 
 3 KEGG_RETINOL_METABOLISM                         4 0.333    12 2.58e-3 0.139  
 4 KEGG_ARACHIDONIC_ACID_METABOLISM                5 0.238    21 3.26e-3 0.139  
 5 KEGG_FOCAL_ADHESION                            17 0.105   162 3.83e-3 0.139  
 6 KEGG_DILATED_CARDIOMYOPATHY                     9 0.132    68 7.53e-3 0.227  
 7 KEGG_CYTOKINE_CYTOKINE_RECEPTOR_INTERACTION    10 0.119    84 9.82e-3 0.254  
 8 KEGG_HYPERTROPHIC_CARDIOMYOPATHY_HCM            8 0.129    62 1.33e-2 0.302  
 9 KEGG_CELL_ADHESION_MOLECULES_CAMS               8 0.125    64 1.59e-2 0.319  
10 KEGG_TRYPTOPHAN_METABOLISM                      4 0.190    21 2.07e-2 0.374  
# ℹ 171 more rows
…
If no bias \(\implies\) PWF should be relatively flat

To explicitly use unbiased sampling set method = "Hypergeometric"

goseq(pwf, gene2cat = kegg_by_gene, method = "Hypergeometric") %>% 
  as_tibble() %>% 
  mutate(
    FDR = p.adjust(over_represented_pvalue, "fdr"), pDE = numDEInCat / numInCat
  ) %>% 
  dplyr::select(
    category, nDE = numDEInCat, pDE, size = numInCat, pvalue = over_represented_pvalue, FDR
  ) 

# A tibble: 181 × 6
   category                                      nDE   pDE  size  pvalue     FDR
   <chr>                                       <int> <dbl> <int>   <dbl>   <dbl>
 1 KEGG_ECM_RECEPTOR_INTERACTION                  13 0.2      65 1.71e-5 0.00309
 2 KEGG_NEUROACTIVE_LIGAND_RECEPTOR_INTERACTI…    13 0.169    77 1.11e-4 0.0100 
 3 KEGG_RETINOL_METABOLISM                         4 0.333    12 2.39e-3 0.126  
 4 KEGG_FOCAL_ADHESION                            17 0.105   162 3.31e-3 0.126  
 5 KEGG_ARACHIDONIC_ACID_METABOLISM                5 0.238    21 3.48e-3 0.126  
 6 KEGG_DILATED_CARDIOMYOPATHY                     9 0.132    68 7.15e-3 0.216  
 7 KEGG_CYTOKINE_CYTOKINE_RECEPTOR_INTERACTION    10 0.119    84 9.85e-3 0.255  
 8 KEGG_HYPERTROPHIC_CARDIOMYOPATHY_HCM            8 0.129    62 1.28e-2 0.289  
 9 KEGG_CELL_ADHESION_MOLECULES_CAMS               8 0.125    64 1.54e-2 0.309  
10 KEGG_TRYPTOPHAN_METABOLISM                      4 0.190    21 2.01e-2 0.364  
# ℹ 171 more rows
…
