Finding the Underlying Biology
…
Parses MSigDb gene sets as a tibble

Not really built on existing Bioconductor object classes

Best annotations are for human/mouse

msigdbr

library(tidyverse)
theme_set(theme_bw())
library(msigdbr)
msigdbr_collections()

# A tibble: 23 × 3
   gs_cat gs_subcat         num_genesets
   <chr>  <chr>                    <int>
 1 C1     ""                         299
 2 C2     "CGP"                     3384
 3 C2     "CP"                        29
 4 C2     "CP:BIOCARTA"              292
 5 C2     "CP:KEGG"                  186
 6 C2     "CP:PID"                   196
 7 C2     "CP:REACTOME"             1615
 8 C2     "CP:WIKIPATHWAYS"          664
 9 C3     "MIR:MIRDB"               2377
10 C3     "MIR:MIR_Legacy"           221
# ℹ 13 more rows
…
Comparing To Our Data

res_treatM <- read_rds("data/res_treatM.rds") %>% 
  mutate(ensembl_gene = str_extract(gene_id, "ENSG[0-9]+")) # Remove version numbers
kegg_tbl %>% 
  summarise(
    gs_size = dplyr::n(),
    detected = sum(ensembl_gene %in% res_treatM$ensembl_gene),
    .by = gs_name
  ) %>% 
  mutate(prop_detected = detected / gs_size) %>% 
  arrange(prop_detected)

# A tibble: 186 × 4
   gs_name                                        gs_size detected prop_detected
   <chr>                                            <int>    <int>         <dbl>
 1 KEGG_ASTHMA                                        113        2        0.0177
 2 KEGG_GRAFT_VERSUS_HOST_DISEASE                     314        7        0.0223
 3 KEGG_OLFACTORY_TRANSDUCTION                        523       19        0.0363
 4 KEGG_AUTOIMMUNE_THYROID_DISEASE                    166        7        0.0422
 5 KEGG_ALLOGRAFT_REJECTION                           157        7        0.0446
 6 KEGG_ANTIGEN_PROCESSING_AND_PRESENTATION           535       30        0.0561
 7 KEGG_TYPE_I_DIABETES_MELLITUS                      170       12        0.0706
 8 KEGG_INTESTINAL_IMMUNE_NETWORK_FOR_IGA_PRODUC…     125        9        0.072 
 9 KEGG_TASTE_TRANSDUCTION                             89       10        0.112 
10 KEGG_NATURAL_KILLER_CELL_MEDIATED_CYTOTOXICITY     465       62        0.133 
# ℹ 176 more rows
…
