Exploring Data
…
The function arrange()

Sorting Data

Here we call the function arrange()

The data.frame is the first argument

Any of the column names can then be passed after this

## Sort by length
arrange(pigs, len)

# A tibble: 60 × 3
     len supp  dose 
   <dbl> <chr> <chr>
 1   4.2 VC    Low  
 2   5.2 VC    Low  
 3   5.8 VC    Low  
 4   6.4 VC    Low  
 5   7   VC    Low  
 6   7.3 VC    Low  
 7   8.2 OJ    Low  
 8   9.4 OJ    Low  
 9   9.7 OJ    Low  
10   9.7 OJ    Low  
# ℹ 50 more rows
…
Have we changed the original object?

Hint: To create an object in R we use objectName <- data

Sorting Data

Sorting is done in increasing order by default

To sort in decreasing order
\(\implies\) wrap the column name inside the function desc()

## Sort by length, in descending order
arrange(pigs, desc(len))

# A tibble: 60 × 3
     len supp  dose 
   <dbl> <chr> <chr>
 1  33.9 VC    High 
 2  32.5 VC    High 
 3  30.9 OJ    High 
 4  29.5 VC    High 
 5  29.4 OJ    High 
 6  27.3 OJ    Med  
 7  27.3 OJ    High 
 8  26.7 VC    High 
 9  26.4 VC    High 
10  26.4 OJ    Med  
# ℹ 50 more rows
…
1:5 > 2

[1] FALSE FALSE  TRUE  TRUE  TRUE

The symbol == applies the test is equal to

The converse is != \(\implies\) is NOT equal to

Filtering Data

We could exclude the high dose values instead

filter(pigs, dose != "High")

# A tibble: 40 × 3
     len supp  dose 
   <dbl> <chr> <chr>
 1   4.2 VC    Low  
 2  11.5 VC    Low  
 3   7.3 VC    Low  
 4   5.8 VC    Low  
 5   6.4 VC    Low  
 6  10   VC    Low  
 7  11.2 VC    Low  
 8  11.2 VC    Low  
 9   5.2 VC    Low  
10   7   VC    Low  
# ℹ 30 more rows
…
Filtering Data

Can also filter on numeric values

filter(pigs, len > 20)

# A tibble: 28 × 3
     len supp  dose 
   <dbl> <chr> <chr>
 1  22.5 VC    Med  
 2  23.6 VC    High 
 3  33.9 VC    High 
 4  25.5 VC    High 
 5  26.4 VC    High 
 6  32.5 VC    High 
 7  26.7 VC    High 
 8  21.5 VC    High 
 9  23.3 VC    High 
10  29.5 VC    High 
# ℹ 18 more rows
…
Beyond the scope of today (probably)

Combining Functions

Both |> and %>% take the output of one function
\(\implies\) place it as the first argument of a second

Like sticking a pipe on the output of one
\(\implies\) connecting it to the input of another

Compare the pair

arrange(pigs, len)

# A tibble: 60 × 3
     len supp  dose 
   <dbl> <chr> <chr>
 1   4.2 VC    Low  
 2   5.2 VC    Low  
 3   5.8 VC    Low  
 4   6.4 VC    Low  
 5   7   VC    Low  
 6   7.3 VC    Low  
 7   8.2 OJ    Low  
 8   9.4 OJ    Low  
 9   9.7 OJ    Low  
10   9.7 OJ    Low  
# ℹ 50 more rows

pigs %>% arrange(len)

# A tibble: 60 × 3
     len supp  dose 
   <dbl> <chr> <chr>
 1   4.2 VC    Low  
 2   5.2 VC    Low  
 3   5.8 VC    Low  
 4   6.4 VC    Low  
 5   7   VC    Low  
 6   7.3 VC    Low  
 7   8.2 OJ    Low  
 8   9.4 OJ    Low  
 9   9.7 OJ    Low  
10   9.7 OJ    Low  
# ℹ 50 more rows
…
Adding Columns Using mutate()

The function mutate() can be used to add columns

Can also modify existing columns

pigs %>% 
  arrange(len) %>% 
  mutate(
    rank = rank(len)
  )

# A tibble: 60 × 4
     len supp  dose   rank
   <dbl> <chr> <chr> <dbl>
 1   4.2 VC    Low     1  
 2   5.2 VC    Low     2  
 3   5.8 VC    Low     3  
 4   6.4 VC    Low     4  
 5   7   VC    Low     5  
 6   7.3 VC    Low     6  
 7   8.2 OJ    Low     7  
 8   9.4 OJ    Low     8  
 9   9.7 OJ    Low     9.5
10   9.7 OJ    Low     9.5
# ℹ 50 more rows

Adding Columns Using mutate()

Columns are added sequentially

Can refer to them when adding any further columns

pigs %>% 
  mutate(
    rank = rank(len),
    quantile = rank / max(rank)
  )

# A tibble: 60 × 5
     len supp  dose   rank quantile
   <dbl> <chr> <chr> <dbl>    <dbl>
 1   4.2 VC    Low     1     0.0167
 2  11.5 VC    Low    15     0.25  
 3   7.3 VC    Low     6     0.1   
 4   5.8 VC    Low     3     0.05  
 5   6.4 VC    Low     4     0.0667
 6  10   VC    Low    11.5   0.192 
 7  11.2 VC    Low    13.5   0.225 
 8  11.2 VC    Low    13.5   0.225 
 9   5.2 VC    Low     2     0.0333
10   7   VC    Low     5     0.0833
# ℹ 50 more rows
…
Choosing Columns Using select()

The function select() can be used to select specific columns

One of the “heavy-lifters” of dpylr

pigs %>% 
  select(len)

# A tibble: 60 × 1
     len
   <dbl>
 1   4.2
 2  11.5
 3   7.3
 4   5.8
 5   6.4
 6  10  
 7  11.2
 8  11.2
 9   5.2
10   7  
# ℹ 50 more rows

Choosing Columns Using select()

Very useful for reordering columns when creating tables

pigs %>% 
  select(supp, dose, len)

# A tibble: 60 × 3
   supp  dose    len
   <chr> <chr> <dbl>
 1 VC    Low     4.2
 2 VC    Low    11.5
 3 VC    Low     7.3
 4 VC    Low     5.8
 5 VC    Low     6.4
 6 VC    Low    10  
 7 VC    Low    11.2
 8 VC    Low    11.2
 9 VC    Low     5.2
10 VC    Low     7  
# ℹ 50 more rows

Choosing Columns Using select()

Remove columns by placing - before the name

pigs %>% 
  mutate(
    rank = rank(len),
    quantile = rank / max(rank)
  ) %>% 
  select(-rank)

# A tibble: 60 × 4
     len supp  dose  quantile
   <dbl> <chr> <chr>    <dbl>
 1   4.2 VC    Low     0.0167
 2  11.5 VC    Low     0.25  
 3   7.3 VC    Low     0.1   
 4   5.8 VC    Low     0.05  
 5   6.4 VC    Low     0.0667
 6  10   VC    Low     0.192 
 7  11.2 VC    Low     0.225 
 8  11.2 VC    Low     0.225 
 9   5.2 VC    Low     0.0333
10   7   VC    Low     0.0833
# ℹ 50 more rows

Choosing Columns Using select()

Or we can just select everything but that column

pigs %>% 
  mutate(
    rank = rank(len),
    quantile = rank / max(rank)
  ) %>% 
  select(supp, dose, len, quantile)

# A tibble: 60 × 4
   supp  dose    len quantile
   <chr> <chr> <dbl>    <dbl>
 1 VC    Low     4.2   0.0167
 2 VC    Low    11.5   0.25  
 3 VC    Low     7.3   0.1   
 4 VC    Low     5.8   0.05  
 5 VC    Low     6.4   0.0667
 6 VC    Low    10     0.192 
 7 VC    Low    11.2   0.225 
 8 VC    Low    11.2   0.225 
 9 VC    Low     5.2   0.0333
10 VC    Low     7     0.0833
# ℹ 50 more rows

Using Helpers

The package tidyselect provides helpers to select by pattern

starts_with(), ends_with(), contains(), everything()

pigs %>% 
  select(starts_with("d"))

# A tibble: 60 × 1
   dose 
   <chr>
 1 Low  
 2 Low  
 3 Low  
 4 Low  
 5 Low  
 6 Low  
 7 Low  
 8 Low  
 9 Low  
10 Low  
# ℹ 50 more rows

Using Helpers

pigs %>% 
  select(ends_with("n"))

pigs %>% 
  select(contains("e"))

# A tibble: 60 × 2
     len dose 
   <dbl> <chr>
 1   4.2 Low  
 2  11.5 Low  
 3   7.3 Low  
 4   5.8 Low  
 5   6.4 Low  
 6  10   Low  
 7  11.2 Low  
 8  11.2 Low  
 9   5.2 Low  
10   7   Low  
# ℹ 50 more rows

Using Helpers

everything() is great for putting columns first then the rest…

pigs %>% 
  mutate(
    rank = rank(len),
    quantile = rank / max(rank)
  ) %>% 
  select(supp, dose, everything())

# A tibble: 60 × 5
   supp  dose    len  rank quantile
   <chr> <chr> <dbl> <dbl>    <dbl>
 1 VC    Low     4.2   1     0.0167
 2 VC    Low    11.5  15     0.25  
 3 VC    Low     7.3   6     0.1   
 4 VC    Low     5.8   3     0.05  
 5 VC    Low     6.4   4     0.0667
 6 VC    Low    10    11.5   0.192 
 7 VC    Low    11.2  13.5   0.225 
 8 VC    Low    11.2  13.5   0.225 
 9 VC    Low     5.2   2     0.0333
10 VC    Low     7     5     0.0833
# ℹ 50 more rows
…
