Functions and Iteration
…
Uses tidyselect helpers

The help page has lots of information

Lets use it first

Missing Genotypes

Apply the function is.na() across all columns that start_with “SNP”

snps %>% 
  mutate(across(starts_with("SNP"), is.na)) %>% 
  dplyr::select(1:10)

# A tibble: 104 × 10
   Population SNP1  SNP2  SNP3  SNP4  SNP5  SNP6  SNP7  SNP8  SNP9 
   <chr>      <lgl> <lgl> <lgl> <lgl> <lgl> <lgl> <lgl> <lgl> <lgl>
 1 Control    FALSE FALSE FALSE FALSE FALSE FALSE FALSE FALSE FALSE
 2 Control    FALSE FALSE FALSE FALSE FALSE TRUE  FALSE FALSE FALSE
 3 Control    FALSE FALSE FALSE FALSE FALSE FALSE FALSE FALSE FALSE
 4 Control    FALSE FALSE FALSE FALSE FALSE FALSE FALSE FALSE FALSE
 5 Control    FALSE FALSE FALSE FALSE FALSE FALSE FALSE FALSE FALSE
 6 Control    FALSE FALSE FALSE FALSE FALSE TRUE  FALSE FALSE FALSE
 7 Control    FALSE FALSE FALSE FALSE FALSE FALSE FALSE FALSE FALSE
 8 Control    FALSE FALSE FALSE FALSE FALSE FALSE FALSE FALSE FALSE
 9 Control    FALSE FALSE FALSE FALSE FALSE FALSE FALSE FALSE FALSE
10 Control    FALSE FALSE FALSE FALSE FALSE FALSE FALSE FALSE FALSE
# ℹ 94 more rows
…
Missing Genotypes

This gives the missing count for all 2000 loci

Maybe pivot_longer() might help

snps %>% 
  summarise(
    across(starts_with("SNP"), \(x) sum(is.na(x)))
  ) %>% 
  pivot_longer(everything(), names_to = "locus", values_to = "missing")

# A tibble: 2,000 × 2
   locus missing
   <chr>   <int>
 1 SNP1        3
 2 SNP2        0
 3 SNP3        1
 4 SNP4        0
 5 SNP5        2
 6 SNP6        3
 7 SNP7        1
 8 SNP8        1
 9 SNP9        1
10 SNP10       1
# ℹ 1,990 more rows
…
For those with an OR > 1 the A allele might be a dominant susceptibility locus

The Final Analysis

# A tibble: 2,000 × 8
   locus   df               ft      Control Treat    OR        p    adj_p
   <chr>   <list>           <list>    <int> <int> <dbl>    <dbl>    <dbl>
 1 SNP1716 <tibble [2 × 3]> <htest>      47     8  38.7 2.17e-14 4.35e-11
 2 SNP1236 <tibble [2 × 3]> <htest>      46    11  22.9 1.29e-11 2.57e- 8
 3 SNP1618 <tibble [2 × 3]> <htest>      45    12  22.7 3.00e-11 6.00e- 8
 4 SNP248  <tibble [2 × 3]> <htest>      44    10  18.8 7.91e-11 1.58e- 7
 5 SNP1730 <tibble [2 × 3]> <htest>      43    10  17.0 3.27e-10 6.54e- 7
 6 SNP311  <tibble [2 × 3]> <htest>      41    10  13.5 2.52e- 9 5.04e- 6
 7 SNP1385 <tibble [2 × 3]> <htest>      45    14  14.0 3.70e- 9 7.40e- 6
 8 SNP1647 <tibble [2 × 3]> <htest>      43    13  13.5 4.28e- 9 8.57e- 6
 9 SNP8    <tibble [2 × 3]> <htest>      46    16  13.5 9.41e- 9 1.88e- 5
10 SNP1993 <tibble [2 × 3]> <htest>      40    11  11.7 1.74e- 8 3.47e- 5
# ℹ 1,990 more rows
…
