Spreadsheet-Like Data
…
Very similar to an SQL table

R equivalent to a spreadsheet

Missing values (blank cells) are usually filled with NA

Must have column names \(\implies\) row names becoming less common

Data Frame Objects

Instead of View() \(\implies\) preview by typing the object name

pigs

# A tibble: 60 × 3
     len supp  dose 
   <dbl> <chr> <chr>
 1   4.2 VC    Low  
 2  11.5 VC    Low  
 3   7.3 VC    Low  
 4   5.8 VC    Low  
 5   6.4 VC    Low  
 6  10   VC    Low  
 7  11.2 VC    Low  
 8  11.2 VC    Low  
 9   5.2 VC    Low  
10   7   VC    Low  
# ℹ 50 more rows
…
