Visualisation With ggplot2
…
Will learn in detail tomorrow

ggplot() will automatically place character columns in alphanumeric order

Manually set the order by explicitly setting as a factor with levels

Modifying Data Prior to Plotting

Notice when we do this, the column is now fct

pigs %>% 
  mutate(dose = factor(dose, levels = c("Low", "Med", "High")))

# A tibble: 60 × 3
     len supp  dose 
   <dbl> <chr> <fct>
 1   4.2 VC    Low  
 2  11.5 VC    Low  
 3   7.3 VC    Low  
 4   5.8 VC    Low  
 5   6.4 VC    Low  
 6  10   VC    Low  
 7  11.2 VC    Low  
 8  11.2 VC    Low  
 9   5.2 VC    Low  
10   7   VC    Low  
# ℹ 50 more rows
…
Modifying Data Prior to Plotting

We can also plot quanntiles with a few prior steps

First rank the len values

Then turn into quantiles

pigs %>% 
  mutate(
    rank = rank(len),
    q = rank / max(rank)
  )

# A tibble: 60 × 5
     len supp  dose   rank      q
   <dbl> <chr> <chr> <dbl>  <dbl>
 1   4.2 VC    Low     1   0.0167
 2  11.5 VC    Low    15   0.25  
 3   7.3 VC    Low     6   0.1   
 4   5.8 VC    Low     3   0.05  
 5   6.4 VC    Low     4   0.0667
 6  10   VC    Low    11.5 0.192 
 7  11.2 VC    Low    13.5 0.225 
 8  11.2 VC    Low    13.5 0.225 
 9   5.2 VC    Low     2   0.0333
10   7   VC    Low     5   0.0833
# ℹ 50 more rows
…
