Extending Data Frame Manipulation
…
Long Form

If we want to plot the values of SLAM & GAPDH \(\implies\) pivot_longer()

Colloquially known as long form

Very helpful for regression models & visualisation in R

pcr %>% 
  pivot_longer(
    cols = all_of(c("SLAM", "GAPDH")), names_to = "gene", values_to = "Ct"
  )

# A tibble: 36 × 5
   treatment timepoint replicate gene     Ct
   <fct>     <fct>         <int> <chr> <dbl>
 1 Control   24hr              1 SLAM   23.9
 2 Control   24hr              1 GAPDH  17.7
 3 Control   24hr              2 SLAM   23.5
 4 Control   24hr              2 GAPDH  17.4
 5 Control   24hr              3 SLAM   23.7
 6 Control   24hr              3 GAPDH  17.8
 7 Infected  24hr              1 SLAM   23.4
 8 Infected  24hr              1 GAPDH  15.7
 9 Infected  24hr              2 SLAM   23.3
10 Infected  24hr              2 GAPDH  15.4
# ℹ 26 more rows
…
