Extending Data Frame Manipulation
…
Long Form

If we want to plot the values of SLAM & GAPDH \(\implies\) pivot_longer()

Colloquially known as long form

Very helpful for regression models & visualisation in R

pcr %>% 
  pivot_longer(
    cols = all_of(c("SLAM", "GAPDH")), names_to = "gene", values_to = "Ct"
  )

# A tibble: 36 × 5
   treatment timepoint replicate gene     Ct
   <fct>     <fct>         <int> <chr> <dbl>
 1 C         24hr              1 SLAM   23.9
 2 C         24hr              1 GAPDH  17.7
 3 C         24hr              2 SLAM   23.5
 4 C         24hr              2 GAPDH  17.4
 5 C         24hr              3 SLAM   23.7
 6 C         24hr              3 GAPDH  17.8
 7 INF       24hr              1 SLAM   23.4
 8 INF       24hr              1 GAPDH  15.7
 9 INF       24hr              2 SLAM   23.3
10 INF       24hr              2 GAPDH  15.4
# ℹ 26 more rows
…
